\relax 
\@writefile{toc}{\contentsline {section}{\numberline {I}Overview}{1}}
\@writefile{toc}{\contentsline {section}{\numberline {II}Structure}{1}}
\@writefile{toc}{\contentsline {subsection}{\numberline {\unhbox \voidb@x \hbox {II-A}}Front-end}{1}}
\@writefile{toc}{\contentsline {subsection}{\numberline {\unhbox \voidb@x \hbox {II-B}}Back-end}{1}}
\@writefile{toc}{\contentsline {section}{\numberline {III}Tools}{1}}
\@writefile{toc}{\contentsline {section}{\numberline {IV}Datasets}{2}}
